{
  "project_info": {
    "project_number": "1025557251286",
    "firebase_url": "https://officeg-65fc2.firebaseio.com",
    "project_id": "officeg-65fc2",
    "storage_bucket": "officeg-65fc2.appspot.com"
  },
  "client": [
    {
      "client_info": {
        "mobilesdk_app_id": "1:1025557251286:android:c374059c30c5d7b5",
        "android_client_info": {
          "package_name": "org.officeg.mobileapp"
        }
      },
      "oauth_client": [
        {
          "client_id": "1025557251286-caktg3irshmcj7c462h2gtpp4k6eu4pa.apps.googleusercontent.com",
          "client_type": 1,
          "android_info": {
            "package_name": "org.officeg.mobileapp",
            "certificate_hash": "a78b0b013217ffc828fb84dd7077101a770c9a33"
          }
        },
        {
          "client_id": "1025557251286-eor6bbtcivhkh5l0n3fqli4lkcnkm3r1.apps.googleusercontent.com",
          "client_type": 3
        }
      ],
      "api_key": [
        {
          "current_key": "AIzaSyBIY8HwlpVp6quvnA0SVbmVjur7z17a24w"
        }
      ],
      "services": {
        "analytics_service": {
          "status": 1
        },
        "appinvite_service": {
          "status": 2,
          "other_platform_oauth_client": [
            {
              "client_id": "1025557251286-eor6bbtcivhkh5l0n3fqli4lkcnkm3r1.apps.googleusercontent.com",
              "client_type": 3
            },
            {
              "client_id": "1025557251286-joq7rieoh00p7iaoel9v9tvbuuq3ugle.apps.googleusercontent.com",
              "client_type": 2,
              "ios_info": {
                "bundle_id": "techiejack.officeg"
              }
            }
          ]
        },
        "ads_service": {
          "status": 2
        }
      }
    }
  ],
  "configuration_version": "1"
}